{
  "data": [
    {
      "id": 957021523,
      "kind": {
        "type": "video",
        "value": 1
      },
      "upload_file_key": "20200315-inzytcse",
      "title": "win_20180515_11_42_44_pro",
      "original_file": {
        "name": "win_20180515_11_42_44_pro.mp4",
        "size": 0
      },
      "duration": 4,
      "media_information": {
        "format": "MPEG-4",
        "video": {
          "format": "AVC",
          "bitrate": "7899968",
          "width": "1280",
          "height": "720",
          "framerate": "29.804",
          "ratio": "1.778",
          "rotation": "0.000",
          "duration": "12817"
        },
        "audio": {
          "format": "AAC",
          "samplerate": "48000",
          "bitrate": "192000",
          "duration": "12817"
        }
      },
      "category": {
        "id": 507031468,
        "key": "z69bslzza9ofml8f",
        "name": "malgn",
        "level_path": "_malgn"
      },
      "use_encryption": true,
      "status": true,
      "subtitles": [],
      "created_at": "2020-03-15T08:59:30+00:00",
      "updated_at": "2020-03-15T09:00:12+00:00"
    },
    {
      "id": 831000197,
      "kind": {
        "type": "video",
        "value": 1
      },
      "upload_file_key": "20200313-7nfw9jpv",
      "title": "johnny fpv  ⅹ  play gyeonggi-do",
      "original_file": {
        "name": "johnny fpv  ⅹ  play gyeonggi-do.mp4",
        "size": 0
      },
      "duration": 25,
      "media_information": {
        "format": "MPEG-4",
        "video": {
          "format": "AVC",
          "bitrate": "4033415",
          "width": "1920",
          "height": "1080",
          "framerate": "29.970",
          "ratio": "1.778",
          "rotation": "0.000",
          "duration": "87755"
        },
        "audio": {
          "format": "AAC",
          "samplerate": "44100",
          "bitrate": "127999",
          "duration": "87865"
        }
      },
      "category": {
        "id": 1036583798,
        "key": "n1bwi3w1bjtj6bk2",
        "name": "lms",
        "level_path": "_lms"
      },
      "use_encryption": false,
      "status": true,
      "subtitles": [],
      "created_at": "2020-03-13T09:20:40+00:00",
      "updated_at": "2020-03-13T09:24:31+00:00"
    },
    {
      "id": 564869503,
      "kind": {
        "type": "video",
        "value": 1
      },
      "upload_file_key": "20200120-uneqbopg",
      "title": "test",
      "original_file": {
        "name": "test.mp4",
        "size": 0
      },
      "duration": 200,
      "media_information": {
        "format": "MPEG-4",
        "video": {
          "format": "AVC",
          "bitrate": "4824949",
          "width": "1920",
          "height": "1080",
          "framerate": "59.823",
          "ratio": "1.778",
          "rotation": "0.000",
          "duration": "716514"
        },
        "audio": {
          "format": "AAC",
          "samplerate": "44100",
          "bitrate": "125588",
          "duration": "716568"
        }
      },
      "category": {
        "id": 808850305,
        "key": "z8ml1n37bmn1w2ev",
        "name": "2018",
        "level_path": "_2018"
      },
      "use_encryption": false,
      "status": true,
      "subtitles": [],
      "created_at": "2020-01-20T04:19:10+00:00",
      "updated_at": "2020-01-20T04:27:59+00:00"
    },
    {
      "id": 1374672435,
      "kind": {
        "type": "video",
        "value": 1
      },
      "upload_file_key": "20191231-x5jim2be",
      "title": "drawing bts v - - by linemaster & hart",
      "original_file": {
        "name": "drawing bts v - - by linemaster & hart.mp4",
        "size": 0
      },
      "duration": 43,
      "media_information": {
        "format": "MPEG-4",
        "video": {
          "format": "AVC",
          "bitrate": "694022",
          "width": "406",
          "height": "720",
          "framerate": "30.000",
          "ratio": "0.564",
          "rotation": "0.000",
          "duration": "151967"
        },
        "audio": {
          "format": "AAC",
          "samplerate": "44100",
          "bitrate": "128013",
          "duration": "151975"
        }
      },
      "category": {
        "id": 808850305,
        "key": "z8ml1n37bmn1w2ev",
        "name": "2018",
        "level_path": "_2018"
      },
      "use_encryption": false,
      "status": true,
      "subtitles": [],
      "created_at": "2019-12-31T05:11:00+00:00",
      "updated_at": "2019-12-31T05:11:55+00:00"
    },
    {
      "id": 164556767,
      "kind": {
        "type": "video",
        "value": 1
      },
      "upload_file_key": "20191231-uwze0zlz",
      "title": "drawing bts v - - by linemaster & hart",
      "original_file": {
        "name": "drawing bts v - - by linemaster & hart.mp4",
        "size": 0
      },
      "duration": 43,
      "media_information": {
        "format": "MPEG-4",
        "video": {
          "format": "AVC",
          "bitrate": "694022",
          "width": "406",
          "height": "720",
          "framerate": "30.000",
          "ratio": "0.564",
          "rotation": "0.000",
          "duration": "151967"
        },
        "audio": {
          "format": "AAC",
          "samplerate": "44100",
          "bitrate": "128013",
          "duration": "151975"
        }
      },
      "category": {
        "id": 808850305,
        "key": "z8ml1n37bmn1w2ev",
        "name": "2018",
        "level_path": "_2018"
      },
      "use_encryption": false,
      "status": true,
      "subtitles": [],
      "created_at": "2019-12-31T05:10:30+00:00",
      "updated_at": "2019-12-31T05:11:27+00:00"
    },
    {
      "id": 834474601,
      "kind": {
        "type": "video",
        "value": 1
      },
      "upload_file_key": "20191204-muqs7ekh",
      "title": "분노1",
      "original_file": {
        "name": "분노1.mp4",
        "size": 0
      },
      "duration": 1,
      "media_information": {
        "format": "MPEG-4",
        "video": {
          "format": "AVC",
          "bitrate": "3131830",
          "width": "1920",
          "height": "1080",
          "framerate": "59.940",
          "ratio": "1.778",
          "rotation": "0.000",
          "duration": "3387"
        },
        "audio": {
          "format": "AAC",
          "samplerate": "48000",
          "bitrate": "192000",
          "duration": "3387"
        }
      },
      "category": {
        "id": 808850305,
        "key": "z8ml1n37bmn1w2ev",
        "name": "2018",
        "level_path": "_2018"
      },
      "use_encryption": false,
      "status": true,
      "subtitles": [],
      "created_at": "2019-12-04T09:27:20+00:00",
      "updated_at": "2019-12-04T09:27:55+00:00"
    },
    {
      "id": 1725960469,
      "kind": {
        "type": "video",
        "value": 1
      },
      "upload_file_key": "20191114-n116xwfg",
      "title": "ilsan claims center",
      "original_file": {
        "name": "ilsan claims center.mp4",
        "size": 0
      },
      "duration": 30,
      "media_information": {
        "format": "MPEG-4",
        "video": {
          "format": "HEVC",
          "bitrate": "294728",
          "width": "960",
          "height": "540",
          "framerate": "30.000",
          "ratio": "1.778",
          "rotation": "0.000"
        },
        "audio": {
          "format": "AAC",
          "samplerate": "44100",
          "bitrate": "96000",
          "duration": "104676"
        }
      },
      "category": {
        "id": 808850305,
        "key": "z8ml1n37bmn1w2ev",
        "name": "2018",
        "level_path": "_2018"
      },
      "use_encryption": true,
      "status": true,
      "subtitles": [],
      "created_at": "2019-11-14T07:31:50+00:00",
      "updated_at": "2019-11-14T07:32:53+00:00"
    },
    {
      "id": 69318507,
      "kind": {
        "type": "video",
        "value": 1
      },
      "upload_file_key": "20191114-rgkk9ees",
      "title": "★ 18년 성희롱 예방 교육자료1영상 22분",
      "original_file": {
        "name": "★ 18년 성희롱 예방 교육자료1영상 22분.mp4",
        "size": 0
      },
      "duration": 365,
      "media_information": {
        "format": "MPEG-4",
        "video": {
          "format": "AVC",
          "bitrate": "461185",
          "width": "1280",
          "height": "720",
          "framerate": "29.970",
          "ratio": "1.778",
          "rotation": "0.000"
        },
        "audio": {
          "format": "AAC",
          "samplerate": "44100",
          "bitrate": "125588",
          "duration": "1310952"
        }
      },
      "category": {
        "id": 808850305,
        "key": "z8ml1n37bmn1w2ev",
        "name": "2018",
        "level_path": "_2018"
      },
      "use_encryption": true,
      "status": true,
      "subtitles": [],
      "created_at": "2019-11-14T07:05:20+00:00",
      "updated_at": "2019-11-14T07:10:09+00:00"
    },
    {
      "id": 1078773961,
      "kind": {
        "type": "video",
        "value": 1
      },
      "upload_file_key": "20191010-4q1ey250",
      "title": "driving-a-mercedes",
      "original_file": {
        "name": "driving-a-mercedes.mp4",
        "size": 0
      },
      "duration": 4,
      "media_information": {
        "format": "MPEG-4",
        "video": {
          "format": "AVC",
          "bitrate": "13001000",
          "width": "1920",
          "height": "1080",
          "framerate": "23.976",
          "ratio": "1.778",
          "rotation": "0.000"
        }
      },
      "category": {
        "id": 808850305,
        "key": "z8ml1n37bmn1w2ev",
        "name": "2018",
        "level_path": "_2018"
      },
      "use_encryption": false,
      "status": true,
      "subtitles": [],
      "created_at": "2019-10-10T08:26:30+00:00",
      "updated_at": "2019-10-10T08:27:10+00:00"
    },
    {
      "id": 913232707,
      "kind": {
        "type": "video",
        "value": 1
      },
      "upload_file_key": "20190617-b91vpqf3",
      "title": "1강 현대미술이란",
      "original_file": {
        "name": "1강 현대미술이란.mp4",
        "size": 0
      },
      "duration": 390,
      "media_information": {
        "format": "MPEG-4",
        "video": {
          "format": "AVC",
          "bitrate": "1498810",
          "width": "1280",
          "height": "720",
          "framerate": "23.976",
          "ratio": "1.778",
          "rotation": "0.000"
        },
        "audio": {
          "format": "AAC",
          "samplerate": "48000",
          "duration": "1401442"
        }
      },
      "category": {
        "id": 1036583798,
        "key": "n1bwi3w1bjtj6bk2",
        "name": "lms",
        "level_path": "_lms"
      },
      "use_encryption": false,
      "status": true,
      "subtitles": [],
      "created_at": "2019-06-17T05:31:40+00:00",
      "updated_at": "2019-06-17T05:46:35+00:00"
    }
  ],
  "links": {
    "first": "https://api-vod-kr.kollus.com/api/v0/vod/channels/ka57504w/media-contents?per_page=10&order_by=created_at_desc&access_token=88ykb1yfl34ti351&keyword=&order=created_at_asc&category_key=&status=1&page=1",
    "last": "https://api-vod-kr.kollus.com/api/v0/vod/channels/ka57504w/media-contents?per_page=10&order_by=created_at_desc&access_token=88ykb1yfl34ti351&keyword=&order=created_at_asc&category_key=&status=1&page=6",
    "prev": null,
    "next": "https://api-vod-kr.kollus.com/api/v0/vod/channels/ka57504w/media-contents?per_page=10&order_by=created_at_desc&access_token=88ykb1yfl34ti351&keyword=&order=created_at_asc&category_key=&status=1&page=2"
  },
  "meta": {
    "current_page": 1,
    "from": 1,
    "last_page": 6,
    "path": "https://api-vod-kr.kollus.com/api/v0/vod/channels/ka57504w/media-contents",
    "per_page": "10",
    "to": 10,
    "total": 55
  }
}